import com.helloworld.drools.beans.Applicant;

rule "Is of valid age"
    when
        $a : Applicant( age > 18 )
    then
        $a.setValid( true );
        System.out.println("$a.isValid: " + $a.isValid());
    end

